%YAML 1.1
%TAG !u! tag:unity3d.com,2011:
--- !u!1045 &1
EditorBuildSettings:
  m_ObjectHideFlags: 0
  serializedVersion: 2
  m_Scenes:
  - enabled: 1
    path: Assets/Scenes/6 landscape.unity
    guid: 1e935753600c43a489005f9921a4b077
  - enabled: 1
    path: Assets/Scenes/4.unity
    guid: 73e9eef8bcf06924c800a0e7a6fbca12
  - enabled: 1
    path: Assets/Scenes/3.unity
    guid: 58538d637a5bb2740b8d4833d1af234b
  m_configObjects: {}
